tidyNano Vignette
…
nanoimport is a function that extracts the particle data from raw a nanosight .csv file and creates a dataframe that is suitable for cleaning within R.

data <- nanoimport(file) 

data
#> # A tibble: 1,000 x 13
#>    particle_size std_10000_yes_2_00 std_10000_yes_2_01 std_10000_yes_2_02
#>            <dbl>              <int>              <int>              <int>
#>  1         0.500                  0                  0                  0
#>  2         1.50                   0                  0                  0
#>  3         2.50                   0                  0                  0
#>  4         3.50                   0                  0                  0
#>  5         4.50                   0                  0                  0
#>  6         5.50                   0                  0                  0
#>  7         6.50                   0                  0                  0
#>  8         7.50                   0                  0                  0
#>  9         8.50                   0                  0                  0
#> 10         9.50                   0                  0                  0
#> # ... with 990 more rows, and 9 more variables: std_10000_no_2_00 <int>,
#> #   std_10000_no_2_01 <int>, std_10000_no_2_02 <int>,
#> #   std_10000_yes_1_00 <int>, std_10000_yes_1_01 <int>,
#> #   std_10000_yes_1_02 <int>, std_10000_no_1_00 <int>,
#> #   std_10000_no_1_01 <int>, std_10000_no_1_02 <int>

nanotidy

nanotidy is a function that facilitates the conversion of a dataframe to make it tidy for easy data visualization with ggplot2 and data manipulation with dplyr.

nanoimport(file) %>% 
  nanotidy(2:13) 
#> # A tibble: 12,000 x 3
#>    particle_size Sample             Count
#>            <dbl> <chr>              <dbl>
#>  1         0.500 std_10000_yes_2_00    0.
#>  2         1.50  std_10000_yes_2_00    0.
#>  3         2.50  std_10000_yes_2_00    0.
#>  4         3.50  std_10000_yes_2_00    0.
#>  5         4.50  std_10000_yes_2_00    0.
#>  6         5.50  std_10000_yes_2_00    0.
#>  7         6.50  std_10000_yes_2_00    0.
#>  8         7.50  std_10000_yes_2_00    0.
#>  9         8.50  std_10000_yes_2_00    0.
#> 10         9.50  std_10000_yes_2_00    0.
#> # ... with 11,990 more rows

data tidying

We can use the existing tools in the tidyr and dplyr package to futher format the data so it is truly in the tidy format.

tidy_data <- nanoimport(file) %>% 
  nanotidy(2:13) %>% 
  separate(Sample, into = c("Sample", "Dilution", "filter", "injection", "Tech_rep"),
           sep = "_", convert = TRUE) %>% 
  mutate_at(vars(Sample,filter:Tech_rep), as.factor) %>% 
  mutate(True_count = Dilution * Count)

tidy_data
#> # A tibble: 12,000 x 8
#>    particle_size Sample Dilution filter injection Tech_rep Count
#>            <dbl> <fct>     <int> <fct>  <fct>     <fct>    <dbl>
#>  1         0.500 std       10000 yes    2         0           0.
#>  2         1.50  std       10000 yes    2         0           0.
#>  3         2.50  std       10000 yes    2         0           0.
#>  4         3.50  std       10000 yes    2         0           0.
#>  5         4.50  std       10000 yes    2         0           0.
#>  6         5.50  std       10000 yes    2         0           0.
#>  7         6.50  std       10000 yes    2         0           0.
#>  8         7.50  std       10000 yes    2         0           0.
#>  9         8.50  std       10000 yes    2         0           0.
#> 10         9.50  std       10000 yes    2         0           0.
#> # ... with 11,990 more rows, and 1 more variable: True_count <dbl>
…
nanolyze

nanolyze is a function that is able to quickly summarize data by groups. The first argument is the number of variables to group by. The second argument name is the prefix that is added to the mean, sd and se summary, the default name is “Param”. The third argument is param_var which is the numeric variable that is to be summarized. The output of this function is a dataframe of the grouped variables, column N with number of values that were summarized, column mean for the mean, column sd for standard deviation, and column se for standard error of the mean. Here we see that the technical replicates will be averaged.

Tech_avg_data <- tidy_data %>%
  nanolyze(particle_size, Sample, Dilution,filter, injection, 
           name = "Tech_rep",
           param_var = True_count)

Tech_avg_data
#> # A tibble: 4,000 x 9
#> # Groups:   particle_size, Sample, Dilution, filter [?]
#>    particle_size Sample Dilution filter injection Tech_rep_N Tech_rep_mean
#>            <dbl> <fct>     <int> <fct>  <fct>          <int>         <dbl>
#>  1         0.500 std       10000 no     1                  3            0.
#>  2         0.500 std       10000 no     2                  3            0.
#>  3         0.500 std       10000 yes    1                  3            0.
#>  4         0.500 std       10000 yes    2                  3            0.
#>  5         1.50  std       10000 no     1                  3            0.
#>  6         1.50  std       10000 no     2                  3            0.
#>  7         1.50  std       10000 yes    1                  3            0.
#>  8         1.50  std       10000 yes    2                  3            0.
#>  9         2.50  std       10000 no     1                  3            0.
#> 10         2.50  std       10000 no     2                  3            0.
#> # ... with 3,990 more rows, and 2 more variables: Tech_rep_sd <dbl>,
#> #   Tech_rep_se <dbl>
…
In this experiment, a sample was read twice by the Nanosight and thus we can average the means by Injection to obtain a single mean value by using the nanolyze function again. Notice the different use of the name and param_var arguments.

Injection_avg_data <- Tech_avg_data %>% 
  nanolyze(particle_size, Sample, Dilution, filter, 
           name = "Injection",
           param_var = Tech_rep_mean)

Injection_avg_data
#> # A tibble: 2,000 x 8
#> # Groups:   particle_size, Sample, Dilution [?]
#>    particle_size Sample Dilution filter Injection_N Injection_mean
#>            <dbl> <fct>     <int> <fct>        <int>          <dbl>
#>  1         0.500 std       10000 no               2             0.
#>  2         0.500 std       10000 yes              2             0.
#>  3         1.50  std       10000 no               2             0.
#>  4         1.50  std       10000 yes              2             0.
#>  5         2.50  std       10000 no               2             0.
#>  6         2.50  std       10000 yes              2             0.
#>  7         3.50  std       10000 no               2             0.
#>  8         3.50  std       10000 yes              2             0.
#>  9         4.50  std       10000 no               2             0.
#> 10         4.50  std       10000 yes              2             0.
#> # ... with 1,990 more rows, and 2 more variables: Injection_sd <dbl>,
#> #   Injection_se <dbl>
…
